la0_waveform.vcd
#0 $dumpon
$date today $end
$timescale 1 ns $end
$scope module top $end
$var wire 8 0 level_inst/i2c_command_byte_o $end
$var wire 9 1 level_inst/led_o $end
$var wire 1 2 level_inst/i2c_data_out_valid_i $end
$var wire 1 3 level_inst/i2c_write_o $end
$var wire 1 4 level_inst/i2c_rxak_i $end
$var wire 1 5 level_inst/i2c_arb_lost_i $end
$var wire 1 6 level_inst/i2c_read_o $end
$var wire 1 7 level_inst/error_led_o $end
$var wire 8 8 level_inst/i2c_din_o $end
$var wire 8 9 level_inst/i2c_data_out_i $end
$var wire 1 a level_inst/clk_i $end
$var wire 1 b level_inst/i2c_write_done_i $end
$var wire 1 c level_inst/i2c_busy_i $end
$var wire 8 d level_inst/raw_buffer $end
$var wire 7 e level_inst/state $end
$var wire 8 f level_inst/i2c_num_bytes_o $end
$var wire 8 10 level_inst/i2c_slave_addr_o $end
$var wire 1 11 level_inst/reset_i $end
$upscope $end
$enddefinitions $end
#0
$dumpvars
b01101011 0
b000000000 1
02
03
14
05
06
17
b00000000 8
b00000000 9
0a
0b
1c
b00000000 d
b1101100 e
b00000010 f
b11010000 10
011
$end
#1
b10100000 0
b000000001 1
04
07
0c
b0000000 e
b00000000 f
#10
b01101011 0
b000000000 1
14
17
1c
b1101100 e
b10000010 f
b00110101 10
#20
b00000010 f
b11010000 10
#21
b10100000 0
b000000001 1
04
07
0c
b0000000 e
b00000000 f
#30
b10000000 f
b00110101 10
#31
b01101011 0
b000000000 1
14
17
1c
b1101100 e
b10000010 f
#51
b10100000 0
b000000001 1
04
07
0c
b0000000 e
b00000000 f
b11010000 10
#72
b01101011 0
b000000000 1
14
17
1c
b1101100 e
b10000010 f
b00110101 10
#82
b10100000 0
b000000001 1
04
07
0c
b0000000 e
b00000000 f
b11010000 10
#102
b10000000 f
b00110101 10
#103
b01101011 0
b000000000 1
14
17
1c
b1101100 e
b10000010 f
#123
b00000010 f
b11010000 10
#124
b10100000 0
b000000001 1
04
07
0c
b0000000 e
b00000000 f
#128
b10000000 f
b00110101 10
#129
b01101011 0
b000000000 1
14
17
1c
b1101100 e
b10000010 f
#147
b00000010 f
b11010000 10
#148
b10100000 0
b000000001 1
04
07
0c
b0000000 e
b00000000 f
#158
b01101011 0
b000000000 1
14
17
1c
b1101100 e
b10000010 f
b00110101 10
#168
b00000000 0
b000000010 1
04
07
0c
b0000000 e
b00000000 f
b00000000 10
111
#188
011
#189
b000000000 1
14
#209
111
#210
b000000010 1
04
#219
011
#220
b000000000 1
14
#240
b000000010 1
04
111
#256
011
#257
b000000000 1
14
#276
111
#277
b000000010 1
04
#286
011
#287
b000000000 1
14
#307
b000000010 1
04
111
#328
b000000000 1
14
011
#338
b000000010 1
04
111
#358
011
#359
b000000000 1
14
#379
111
#380
b000000010 1
04
#384
011
#385
b000000000 1
14
#404
b000000010 1
04
111
#424
011
#425
b000000000 1
14
#445
111
#446
b000000010 1
04
#455
011
#456
b000000000 1
14
#476
b000000010 1
04
111
#497
b000000000 1
14
011
#507
b000000010 1
04
111
#521
011
#522
b000000000 1
14
#542
b000000010 1
04
111
#563
b000000000 1
14
011
#573
b000000010 1
04
111
#593
011
#594
b000000000 1
14
#614
111
#615
b000000010 1
04
#624
011
#625
b000000000 1
14
#640
111
#641
b000000010 1
04
#650
b000000000 1
14
011
#660
b000000010 1
04
111
#681
b01101011 0
b000000000 1
14
17
b1101100 e
b10000010 f
b00110101 10
011
#691
b10100000 0
b000000001 1
04
07
b0000000 e
b00000000 f
b11010000 10
#711
b10000000 f
b00110101 10
#712
b01101011 0
b000000000 1
14
17
1c
b1101100 e
b10000010 f
#732
b00000010 f
b11010000 10
#733
b10100000 0
b000000001 1
04
07
0c
b0000000 e
b00000000 f
#742
b10000000 f
b00110101 10
#743
b01101011 0
b000000000 1
14
17
1c
b1101100 e
b10000010 f
#763
b10100000 0
b000000001 1
04
07
0c
b0000000 e
b00000000 f
b11010000 10
#768
b10000000 f
b00110101 10
#769
b01101011 0
b000000000 1
14
17
1c
b1101100 e
b10000010 f
#808
b00000010 f
b11010000 10
#809
b10100000 0
b000000001 1
04
07
0c
b0000000 e
b00000000 f
#818
b10000000 f
b00110101 10
#819
b01101011 0
b000000000 1
14
17
1c
b1101100 e
b10000010 f
#839
b10100000 0
b000000001 1
04
07
0c
b0000000 e
b00000000 f
b11010000 10
#860
b01101011 0
b000000000 1
14
17
1c
b1101100 e
b10000010 f
b00110101 10
#870
b10100000 0
b000000001 1
04
07
0c
b0000000 e
b00000000 f
b11010000 10
#890
b10000000 f
b00110101 10
#891
b01101011 0
b000000000 1
14
17
1c
b1101100 e
b10000010 f
#937
b00000010 f
b11010000 10
#938
b10100000 0
b000000001 1
04
07
0c
b0000000 e
b00000000 f
#947
b10000000 f
b00110101 10
#948
b01101011 0
b000000000 1
14
17
1c
b1101100 e
b10000010 f
#968
b10100000 0
b000000001 1
04
07
0c
b0000000 e
b00000000 f
b11010000 10
#989
b01101011 0
b000000000 1
14
17
1c
b1101100 e
b10000010 f
b00110101 10
#999
b10100000 0
b000000001 1
04
07
0c
b0000000 e
b00000000 f
b11010000 10
#1019
b10000000 f
b00110101 10
#1020
b01101011 0
b000000000 1
14
17
1c
b1101100 e
b10000010 f
#1023
b01101011 0
b000000000 1
02
03
14
05
06
17
b00000000 8
b00000000 9
0a
0b
1c
b00000000 d
b1101100 e
b10000010 f
b00110101 10
011
